Lab_4
…
# Between the report from 3/12/20 and 9/12/20 there is signicantly more data represented and many more states and providences which have data recorded, from 218 entries to 3,954. The latest report also has columns which measures of active cases as well as specific cities and their infection rates. 

2. # Total Counts for Each Country

## [1] 2

report_03_12_2020$Total_Counts <- (report_03_12_2020$Confirmed + report_03_12_2020$Deaths + report_03_12_2020$Recovered)
report_03_12_2020 %>% 
  group_by(Country_Region) %>% 
  select(Country_Region, Province_State, Confirmed, Deaths, Recovered, Total_Counts) %>% 
  summarize(Total_Deaths = sum(Deaths), Total_Recovered = sum(Recovered), Total_Confirmed = sum(Confirmed), Total_Counts = sum(Total_Counts))

## `summarise()` ungrouping output (override with `.groups` argument)

## # A tibble: 118 x 5
##    Country_Region Total_Deaths Total_Recovered Total_Confirmed Total_Counts
##    <chr>                 <dbl>           <dbl>           <dbl>        <dbl>
##  1 Afghanistan               0               0               7            7
##  2 Albania                   1               0              23           24
##  3 Algeria                   1               8              24           33
##  4 Andorra                   0               1               1            2
##  5 Argentina                 1               0              19           20
##  6 Armenia                   0               0               4            4
##  7 Australia                 3              21             128          152
##  8 Austria                   1               4             302          307
##  9 Azerbaijan                0               3              11           14
## 10 Bahrain                   0              35             195          230
## #  with 108 more rows

report_09_12_2020$Total_Counts <- (report_09_12_2020$Confirmed + report_09_12_2020$Deaths + report_09_12_2020$Recovered)
report_09_12_2020 %>% 
  group_by(Country_Region) %>% 
  select(Country_Region, Province_State, Confirmed, Deaths, Recovered, Total_Counts) %>% 
  summarize(Total_Deaths = sum(Deaths), Total_Recovered = sum(Recovered), Total_Confirmed = sum(Confirmed), Total_Counts = sum(Total_Counts))

## `summarise()` ungrouping output (override with `.groups` argument)

## # A tibble: 188 x 5
##    Country_Region      Total_Deaths Total_Recovered Total_Confirmed Total_Counts
##    <chr>                      <dbl>           <dbl>           <dbl>        <dbl>
##  1 Afghanistan                 1420           31234           38641        71295
##  2 Albania                      330            6494           11185        18009
##  3 Algeria                     1605           33875           48007        83487
##  4 Andorra                       53             943            1344         2340
##  5 Angola                       132            1289            3335         4756
##  6 Antigua and Barbuda            3              91              95          189
##  7 Argentina                  11263          409771          546481       967515
##  8 Armenia                      911           41605           45675        88191
##  9 Australia                    810           23338           26651        50799
## 10 Austria                      754           26579           32696        60029
## #  with 178 more rows
…
## # A tibble: 1 x 5
##   Country_Region Total_Deaths Total_Recovered Total_Confirmed Total_Counts
##   <chr>                 <dbl>           <dbl>           <dbl>        <dbl>
## 1 US                   193693         2434658         6485214      9113565

# Counts for Confirmed Cases in US States
report_03_12_2020 %>% 
  group_by(Province_State) %>% 
  filter(Country_Region == "US") %>% 
  summarize(Total_Deaths = sum(Deaths), Total_Recovered = sum(Recovered), Total_Confirmed = sum(Confirmed), Total_Counts = sum(Total_Counts))

## `summarise()` ungrouping output (override with `.groups` argument)

## # A tibble: 52 x 5
##    Province_State      Total_Deaths Total_Recovered Total_Confirmed Total_Counts
##    <chr>                      <dbl>           <dbl>           <dbl>        <dbl>
##  1 Alaska                         0               0               0            0
##  2 Arizona                        0               1               9           10
##  3 Arkansas                       0               0               6            6
##  4 California                     4               6             221          231
##  5 Colorado                       0               0              45           45
##  6 Connecticut                    0               0               5            5
##  7 Delaware                       0               0               1            1
##  8 Diamond Princess               0               0              46           46
##  9 District of Columb            0               0              10           10
## 10 Florida                        2               0              35           37
## #  with 42 more rows

report_09_12_2020 %>% 
  group_by(Province_State) %>% 
  filter(Country_Region == "US") %>% 
  summarize(Total_Deaths = sum(Deaths), Total_Recovered = sum(Recovered), Total_Confirmed = sum(Confirmed), Total_Counts = sum(Total_Counts))

## `summarise()` ungrouping output (override with `.groups` argument)

## # A tibble: 58 x 5
##    Province_State      Total_Deaths Total_Recovered Total_Confirmed Total_Counts
##    <chr>                      <dbl>           <dbl>           <dbl>        <dbl>
##  1 Alabama                     2350               0          137646       139996
##  2 Alaska                        44               0            6207         6251
##  3 Arizona                     5315               0          208128       213443
##  4 Arkansas                     969               0           69710        70679
##  5 California                 14327               0          758933       773260
##  6 Colorado                    1988               0           60876        62864
##  7 Connecticut                 4480               0           54326        58806
##  8 Delaware                     613               0           18726        19339
##  9 Diamond Princess               0               0              49           49
## 10 District of Columb          616               0           14493        15109
## #  with 48 more rows
…
